7E1022044087E0$0$0.0.18$8
411FE0040$1$0.0.11$8
6310A224488610$2$0.0.16$8
421022444886E0$3$0.0.15$8
080681107F8050$4$0.0.16$8
F21222444888E0$5$0.0.18$8
7E1222446880E0$6$0.0.19$8
C010027C700800$7$0.0.13$8
6E1222444886E0$8$0.0.19$8
701162244487E0$9$0.0.19$8
2212822E596CAA1532A9964B928088000083146A5544A915FEA4544F9414420800050121C488A119FE04608A112020040007F88057F2017F8100DEE8210A3E0400$登录失败$0.0.199$12
5E4849FA3FF08839CD472EE426BC770400011033F87F40C8FD1FA007FEFFD082104200010827F744EFF1FDE4BC9092127E0FFE0FC$验证码$0.0.221$12
8819FC3FA2057EAFFF57EA554AFD5FA2000020BFF08440CBF97FFABF54AAD7FAFE40400301432FE5F4A4949292524A4849FD3F80000009012FE5FDEAAD5CAB1543FF7FE0C0100000807FFFFE403C7EFF1E020C41EFCFF840000100FFFFFE0055CABD55EAAD54AB957200000003FB7F0AAF55EAC55CAA954BFA7F6004$请填写身份信息$0.0.521$12
00839392124248490921242404FC80000000FFD242487FE001FFA104BA949CE8000404A124F4E570A214434849E08010000049C9E9552AE6638399D2AB55D9C120003FE924A8FFF2A2924003FF4809FE2000002084109BFC420841083FF420840080$与服务器断开$0.0.303$12
128A9866FF514CA40207BD1043F440000110223FF890006FF157AA95F2AA5D7800000FFD2125A4D4B2B2FA4A494929210000811013F80200800C0E7E003800C000008809FC0120447E801003FF42084108000191DFCA490A08057FEA9552ABF54AF8008809FC05028F532AA5E4AAF520A0040$数据库认证错误$0.0.362$12
7F88057F2017F8083FF8A127089810800040083D64B4949292524A4F4809C10000211441BF9A80027F89013DFC44F4C0000040100FFE00022F492A27F4A8F4808800110223FF8900007FC88510620440FC0$账号被保护$0.0.245$12
7F88057F2017F8083FF8A127089810800040083D64B4949292524A4F4809C10000211441BF9A80027F89013DFC44F4C0000204210009323A9C40BF910228448088001925673508A2004BC94FE92524BC800$账号被冻结$0.0.241$12
7FEFFDC3B0340200000000110220444885FE22044088110000000C92B39A845000120247FF125A50C8C0000000080581B877FEFFC$【主线】$0.0.151$12
FFF002004FB9516A357CA89513EA00800010420A4129214433FF90C2144A4A410801000008010FAF542A8550ABF54AA9552FA404008000020840CF80010020048C8A7082687088010000042098FFE240054925242487F892525248010$原来是这样$2.0.292$14
